{
    "__comment": "Model generated using MrCrayfish's Model Creator (http://mrcrayfish.com/modelcreator/)",
	"ambientocclusion": false,
    "textures": {
	    "particle": "p455w0rdsthings:blocks/door_face_top",
        "0": "p455w0rdsthings:blocks/door_face_top",
        "1": "p455w0rdsthings:blocks/door_face_top"
    },
    "elements": [
        {
            "name": "Element",
            "from": [ 0.0, 0.0, 12.0 ], 
            "to": [ 3.0, 16.0, 16.0 ], 
            "faces": {
                "north": { "texture": "#0", "uv": [ 0.0, 0.0, 3.0, 16.0 ], "cullface": "north" },
                "east": { "texture": "#0", "uv": [ 0.0, 0.0, 4.0, 16.0 ], "cullface": "east" },
                "south": { "texture": "#0", "uv": [ 0.0, 0.0, 3.0, 16.0 ], "cullface": "south" },
                "west": { "texture": "#0", "uv": [ 4.0, 0.0, 0.0, 16.0 ], "cullface": "west" },
                "up": { "texture": "#0", "uv": [ 4.0, 0.0, 0.0, 4.0 ], "rotation": 180, "cullface": "up" }
            }
        },
        {
            "name": "Element Top",
            "from": [ 0.0, 12.0, 4.0 ], 
            "to": [ 3.0, 16.0, 12.0 ], 
            "faces": {
                "north": { "texture": "#0", "uv": [ 13.0, 0.0, 15.0, 4.0 ] },
                "east": { "texture": "#0", "uv": [ 12.0, 0.0, 4.0, 4.0 ] },
                "south": { "texture": "#0", "uv": [ 0.0, 0.0, 3.0, 4.0 ] },
                "west": { "texture": "#0", "uv": [ 4.0, 0.0, 12.0, 4.0 ] },
                "up": { "texture": "#0", "uv": [ 0.0, 11.0, 4.0, 5.0 ] },
                "down": { "texture": "#0", "uv": [ 4.0, 4.0, 7.0, 11.0 ] }
            }
        },
        {
            "name": "Element Bottom",
            "from": [ 0.0, 0.0, 4.0 ], 
            "to": [ 3.0, 4.0, 12.0 ], 
            "faces": {
                "north": { "texture": "#0", "uv": [ 0.0, 0.0, 3.0, 4.0 ] },
                "east": { "texture": "#0", "uv": [ 4.0, 12.0, 12.0, 16.0 ] },
                "south": { "texture": "#0", "uv": [ 0.0, 0.0, 1.0, 4.0 ] },
                "west": { "texture": "#0", "uv": [ 4.0, 12.0, 12.0, 16.0 ] },
                "up": { "texture": "#0", "uv": [ 3.0, 6.0, 1.0, 1.0 ] }
            }
        },
        {
            "name": "Element Right",
            "from": [ 0.0, 0.0, 0.0 ], 
            "to": [ 3.0, 16.0, 4.0 ], 
            "faces": {
                "north": { "texture": "#0", "uv": [ 16.0, 0.0, 13.0, 16.0 ] },
                "east": { "texture": "#0", "uv": [ 4.0, 0.0, 0.0, 15.0 ] },
                "south": { "texture": "#0", "uv": [ 0.0, 0.0, 3.0, 16.0 ] },
                "west": { "texture": "#0", "uv": [ 0.0, 0.0, 4.0, 16.0 ] },
                "up": { "texture": "#0", "uv": [ 12.0, 0.0, 16.0, 4.0 ] }
            }
        },
        {
            "name": "bar_one",
            "from": [ -4.0, 4.0, 3.0 ], 
            "to": [ -3.0, 12.5, 4.0 ], 
            "rotation": { "origin": [ 1.5, 6.0, -1.5 ], "axis": "y", "angle": 45.0 },
            "faces": {
                "north": { "texture": "#0", "uv": [ 5.0, 4.0, 6.0, 12.5 ] },
                "east": { "texture": "#0", "uv": [ 5.0, 4.0, 6.0, 12.5 ] },
                "south": { "texture": "#0", "uv": [ 5.0, 4.0, 6.0, 12.5 ] },
                "west": { "texture": "#0", "uv": [ 5.0, 4.0, 6.0, 12.5 ] },
                "up": { "texture": "#0", "uv": [ 4.0, 4.0, 5.0, 5.0 ] },
                "down": { "texture": "#0", "uv": [ 4.0, 4.0, 5.0, 5.0 ] }
            }
        },
        {
            "name": "bar_two",
            "from": [ -5.7, 4.0, 4.8 ], 
            "to": [ -4.7, 12.5, 5.8 ], 
            "rotation": { "origin": [ 1.5, 6.0, -1.5 ], "axis": "y", "angle": 45.0 },
            "faces": {
                "north": { "texture": "#0", "uv": [ 5.0, 4.0, 6.0, 12.5 ] },
                "east": { "texture": "#0", "uv": [ 5.0, 4.0, 6.0, 12.5 ] },
                "south": { "texture": "#0", "uv": [ 5.0, 4.0, 6.0, 12.5 ] },
                "west": { "texture": "#0", "uv": [ 5.0, 4.0, 6.0, 12.5 ] },
                "up": { "texture": "#0", "uv": [ 4.0, 4.0, 5.0, 5.0 ] },
                "down": { "texture": "#0", "uv": [ 4.0, 4.0, 5.0, 5.0 ] }
            }
        },
        {
            "name": "bar_three",
            "from": [ -7.5, 4.0, 6.5 ], 
            "to": [ -6.5, 12.5, 7.5 ], 
            "rotation": { "origin": [ 1.5, 6.0, -1.5 ], "axis": "y", "angle": 45.0 },
            "faces": {
                "north": { "texture": "#0", "uv": [ 5.0, 4.0, 6.0, 12.5 ] },
                "east": { "texture": "#0", "uv": [ 5.0, 4.0, 6.0, 12.5 ] },
                "south": { "texture": "#0", "uv": [ 5.0, 4.0, 6.0, 12.5 ] },
                "west": { "texture": "#0", "uv": [ 5.0, 4.0, 6.0, 12.5 ] },
                "up": { "texture": "#0", "uv": [ 4.0, 4.0, 5.0, 5.0 ] },
                "down": { "texture": "#0", "uv": [ 4.0, 4.0, 5.0, 5.0 ] }
            }
        }
    ]
}