{
    "__comment": "Model generated using MrCrayfish's Model Creator (http://mrcrayfish.com/modelcreator/)",
	"ambientocclusion": false,
    "textures": {
	    "particle": "p455w0rdsthings:blocks/door_face_bottom",
        "0": "p455w0rdsthings:blocks/door_face_bottom"
    },
    "elements": [
        {
            "name": "Element",
            "from": [ 0.0, 0.0, 0.0 ], 
            "to": [ 3.0, 16.0, 16.0 ], 
            "faces": {
                "north": { "texture": "#0", "uv": [ 3.0, 0.0, 0.0, 16.0 ], "cullface": "north" },
                "east": { "texture": "#0", "uv": [ 16.0, 0.0, 0.0, 16.0 ] },
                "south": { "texture": "#0", "uv": [ 0.0, 0.0, 3.0, 16.0 ], "cullface": "south" },
                "west": { "texture": "#0", "uv": [ 0.0, 0.0, 16.0, 16.0 ], "cullface": "west" },
                "down": { "texture": "#0", "uv": [ 13.0, 0.0, 16.0, 16.0 ], "cullface": "down" }
            }
        }
    ]
}