{
	"parent": "item/generated",
	"textures": {
		"layer0": "p455w0rdsthings:items/ardite_horse_armor"
	},
    "display": {
        "thirdperson": {
            "rotation": [ -90, 0, 0 ],
            "translation": [ 0, 1, -3 ],
            "scale": [ 0.3, 0.3, 0.3 ]
        },
        "firstperson": {
            "rotation": [ 0, -135, 25 ],
            "translation": [ 0, 4, 2 ],
            "scale": [ 0.5, 0.5, 0.5 ]
        }
    }
}