{
	"parent": "p455w0rdsthings:item/carbon_shield",
    "display": {
        "thirdperson_righthand": {
            "rotation": [ 45, 135, 0 ],
            "translation": [ -1, 0, -2 ],
            "scale": [ 1, 1, 1 ]
        },
        "thirdperson_lefthand": {
            "rotation": [ 45, 135, 0 ],
            "translation": [ -1, 0, -2 ],
            "scale": [ 1, 1, 1 ]
        },
        "firstperson_righthand": {
            "rotation": [ 0, 180, 0 ],
            "translation": [ -10, -15, -5 ],
            "scale": [ 2.5, 2.5, 2.5 ]
        },
        "firstperson_lefthand": {
            "rotation": [ 0, 180, 0 ],
            "translation": [ -5, -15, -10 ],
            "scale": [ 2.5, 2.5, 2.5 ]
        },
        "gui": {
            "rotation": [ 15, -25, -5 ],
            "translation": [ 2, 1, 0 ],
            "scale": [ 1, 1, 1 ]
        }
    }
}
