{
	"parent": "p455w0rdsthings:block/couch/couch_all_rainbow",
	"display": {
        "thirdperson": {
            "rotation": [ 20, 45, 190 ],
            "translation": [ 0, 1, -3 ],
            "scale": [ 0.375, 0.375, 0.375 ]
        },
		"gui": {
			"rotation": [ 0, -90, 0 ],
            "translation": [ 0, -1, 0 ],
            "scale": [ 0.8, 0.8, 0.8 ]
		}
    }
}